logic-capture/TH8A N-1-N-1.vcd
$timescale 1 ns $end
$scope module top $end
$var wire 1 ! DIN6_4 $end
$var wire 1 " DIN6_2 $end
$upscope $end
$enddefinitions $end
#0
1!
1"
#2209932000
0!
#2209952000
0"
#2209961000
1"
#2209966000
0"
#2209972000
1"
#2209977000
0"
#2209983000
1"
#2209988000
0"
#2209994000
1"
#2209999000
0"
#2210005000
1"
#2210010000
0"
#2210016000
1"
#2210021000
0"
#2210027000
1!
#2210028000
1"
#2210033000
0"
#2210054000
0!
#2210055000
1"
#2210060000
0"
#2210066000
1"
#2210077000
0"
#2210078000
1!
#2210084000
0!
#2210090000
1!
1"
#2210096000
0"
#2210101000
0!
#2210102000
1"
#2210107000
0"
#2210113000
1"
#2210118000
0"
#2210124000
1"
#2210129000
0"
#2210135000
1"
#2210156000
0"
#2210162000
1"
#2210183000
0"
#2210189000
1"
#2210194000
0"
#2210200000
1"
#2210205000
0"
#2210211000
1"
#2210222000
0"
#2210223000
1!
#2210229000
0!
#2210235000
1"
#2210240000
0"
#2210246000
1"
#2210251000
0"
#2210257000
1"
#2210263000
0"
#2210284000
1"
#2210289000
0"
#2210294000
1!
#2210295000
1"
#2210301000
0"
#2210306000
1"
#2210312000
0"
#2210317000
0!
#2210318000
1"
#2210323000
0"
#2210329000
1"
#2210334000
0"
#2210340000
1"
#2210351000
1!
0"
#2210376000
0!
#2210398000
1"
#2210403000
0"
#2210409000
1"
#2210414000
0"
#2210420000
1"
#2210425000
0"
#2210431000
1"
#2210436000
0"
#2210442000
1"
#2210448000
0"
#2210453000
1"
#2210459000
0"
#2210464000
1"
#2210487000
0"
#2210507000
1!
#2210508000
1"
#2210513000
0"
#2210514000
0!
#2210535000
1"
#2210547000
1!
0"
#2210554000
0!
#2210561000
1"
#2210566000
0"
#2210572000
1"
#2210577000
0"
#2210583000
1"
#2210588000
0"
#2210594000
1"
#2210600000
0"
#2210605000
1"
#2210611000
0"
#2210616000
1"
#2210622000
0"
#2210627000
1"
#2210633000
0"
#2210638000
1!
#2210639000
1"
#2210644000
0!
0"
#2210650000
1"
#2210662000
1!
0"
#2210669000
0!
#2210676000
1"
#2210681000
0"
#2210687000
1"
#2210692000
0"
#2210698000
1"
#2210703000
0"
#2210709000
1"
#2210714000
0"
#2210720000
1"
#2210725000
0"
#2210731000
1"
#2210737000
0"
#2210742000
1"
#2210748000
0"
#2210753000
1"
#2210759000
0"
#2210764000
1"
#2210776000
1!
0"
#2210784000
0!
#2210790000
1!
1"
#2210796000
0"
#2210801000
0!
#2210802000
1"
#2210807000
0"
#2210813000
1"
#2210818000
0"
#2210824000
1"
#2210829000
0"
#2210835000
1"
#2210840000
0"
#2210846000
1"
#2210851000
0"
#2210857000
1"
#2210863000
0"
#2210868000
1"
#2210874000
0"
#2210879000
1"
#2210891000
1!
0"
#2210898000
0!
#2210904000
1!
#2210905000
1"
#2210911000
0"
#2210916000
0!
#2210917000
1"
#2210922000
0"
#2210928000
1"
#2210933000
0"
#2210939000
1"
#2210944000
0"
#2210950000
1"
#2210955000
0"
#2210961000
1"
#2210966000
0"
#2210972000
1"
#2210977000
0"
#2210983000
1"
#2210988000
0"
#2210994000
1"
#2211006000
1!
0"
#2211013000
0!
#2211019000
1!
#2211020000
1"
#2211026000
0"
#2211031000
0!
1"
#2211037000
0"
#2211042000
1!
#2211043000
1"
#2211048000
0"
#2211054000
1"
#2211059000
0"
#2211065000
0!
1"
#2211071000
0"
#2211076000
1!
#2211077000
1"
#2211082000
0"
#2211087000
0!
#2211088000
1"
#2211094000
0"
#2211099000
1"
#2211105000
0"
#2211110000
1"
#2211122000
1!
0"
#2211129000
0!
#2211135000
1!
#2211136000
1"
#2211142000
0"
#2211148000
1"
#2211153000
0"
#2211159000
1"
#2211164000
0"
#2211170000
1"
#2211175000
0"
#2211180000
0!
#2211181000
1"
#2211186000
0"
#2211192000
1"
#2211198000
0"
#2211203000
1"
#2211209000
0"
#2211214000
1"
#2211220000
0"
#2211225000
1"
#2211237000
1!
0"
#2211245000
0!
#2211251000
1"
#2211256000
0"
#2211262000
1"
#2211267000
0"
#2211273000
1"
#2211279000
0"
#2211284000
1"
#2211290000
0"
#2211295000
1"
#2211301000
0"
#2211306000
1"
#2211312000
0"
#2211318000
1"
#2211323000
0"
#2211329000
1"
#2211334000
0"
#2211339000
1"
#2211351000
1!
0"
#2211359000
0!
#2211365000
1"
#2211371000
0"
#2211376000
1"
#2211382000
0"
#2211388000
1"
#2211393000
0"
#2211399000
1"
#2211404000
0"
#2211410000
1"
#2211415000
0"
#2211421000
1"
#2211426000
0"
#2211432000
1"
#2211437000
0"
#2211443000
1"
#2211448000
0"
#2211454000
1"
#2211465000
0"
#2211466000
1!
#2211473000
0!
#2211480000
1"
#2211485000
0"
#2211491000
1"
#2211496000
0"
#2211502000
1"
#2211507000
0"
#2211513000
1"
#2211518000
0"
#2211524000
1"
#2211529000
0"
#2211535000
1"
#2211540000
0"
#2211546000
1"
#2211551000
0"
#2211557000
1"
#2211563000
0"
#2211568000
1"
#2211580000
1!
0"
#2211587000
0!
#2211606000
1"
#2211611000
0"
#2211617000
1"
#2211622000
0"
#2211628000
1"
#2211633000
0"
#2211639000
1"
#2211644000
0"
#2211650000
1"
#2211655000
0"
#2211661000
1"
#2211666000
0"
#2211672000
1"
#2211678000
0"
#2211683000
1"
#2211689000
0"
#2211694000
1"
#2211706000
1!
0"
#2211714000
0!
#2211720000
1"
#2211725000
0"
#2211731000
1"
#2211736000
0"
#2211742000
1"
#2211747000
0"
#2211753000
1"
#2211759000
0"
#2211764000
1"
#2211770000
0"
#2211775000
1"
#2211781000
0"
#2211786000
1"
#2211792000
0"
#2211798000
1"
#2211803000
0"
#2211808000
1"
#2211820000
1!
0"
#2211826000
0!
#2211832000
1"
#2211836000
1!
#3901099000
0!
#3901120000
0"
#3901128000
1"
#3901133000
0"
#3901139000
1"
#3901144000
0"
#3901150000
1"
#3901155000
0"
#3901161000
1"
#3901166000
0"
#3901172000
1"
#3901178000
0"
#3901183000
1"
#3901189000
0"
#3901194000
1!
#3901195000
1"
#3901200000
0"
#3901221000
0!
#3901222000
1"
#3901227000
0"
#3901233000
1"
#3901245000
1!
0"
#3901251000
0!
#3901257000
1!
#3901258000
1"
#3901263000
0"
#3901268000
0!
#3901269000
1"
#3901274000
0"
#3901280000
1"
#3901285000
0"
#3901291000
1"
#3901296000
0"
#3901302000
1"
#3901323000
0"
#3901329000
1"
#3901350000
0"
#3901356000
1"
#3901361000
0"
#3901367000
1"
#3901372000
0"
#3901378000
1"
#3901389000
0"
#3901390000
1!
#3901396000
0!
#3901402000
1"
#3901408000
0"
#3901413000
1"
#3901419000
0"
#3901424000
1"
#3901430000
0"
#3901451000
1"
#3901456000
0"
#3901461000
1!
#3901462000
1"
#3901468000
0"
#3901474000
1"
#3901479000
0"
#3901484000
0!
#3901485000
1"
#3901490000
0"
#3901496000
1"
#3901501000
0"
#3901507000
1"
#3901518000
0"
#3901519000
1!
#3901543000
0!
#3901565000
1"
#3901570000
0"
#3901576000
1"
#3901581000
0"
#3901587000
1"
#3901593000
0"
#3901598000
1"
#3901604000
0"
#3901609000
1"
#3901615000
0"
#3901620000
1"
#3901626000
0"
#3901632000
1"
#3901654000
0"
#3901674000
1!
#3901675000
1"
#3901681000
0!
0"
#3901702000
1"
#3901714000
1!
0"
#3901722000
0!
#3901728000
1"
#3901733000
0"
#3901739000
1"
#3901744000
0"
#3901750000
1"
#3901756000
0"
#3901761000
1"
#3901767000
0"
#3901772000
1"
#3901778000
0"
#3901783000
1"
#3901789000
0"
#3901795000
1"
#3901800000
0"
#3901806000
1"
#3901811000
0"
#3901816000
1"
#3901828000
1!
0"
#3901836000
0!
#3901842000
1"
#3901848000
0"
#3901853000
1"
#3901859000
0"
#3901865000
1"
#3901870000
0"
#3901876000
1"
#3901881000
0"
#3901887000
1"
#3901892000
0"
#3901898000
1"
#3901903000
0"
#3901909000
1"
#3901914000
0"
#3901920000
1"
#3901925000
0"
#3901931000
1"
#3901942000
0"
#3901943000
1!
#3901950000
0!
#3901956000
1!
#3901957000
1"
#3901962000
0"
#3901968000
0!
1"
#3901974000
0"
#3901979000
1"
#3901985000
0"
#3901990000
1"
#3901996000
0"
#3902002000
1"
#3902007000
0"
#3902013000
1"
#3902018000
0"
#3902024000
1"
#3902029000
0"
#3902035000
1"
#3902040000
0"
#3902046000
1"
#3902057000
0"
#3902058000
1!
#3902065000
0!
#3902071000
1!
#3902072000
1"
#3902077000
0"
#3902082000
0!
#3902083000
1"
#3902089000
0"
#3902094000
1"
#3902100000
0"
#3902105000
1"
#3902111000
0"
#3902116000
1"
#3902122000
0"
#3902128000
1"
#3902133000
0"
#3902139000
1"
#3902144000
0"
#3902150000
1"
#3902155000
0"
#3902160000
1"
#3902172000
1!
0"
#3902180000
0!
#3902186000
1!
#3902189000
1"
#3902194000
0"
#3902200000
0!
1"
#3902206000
0"
#3902211000
1!
#3902212000
1"
#3902217000
0"
#3902223000
1"
#3902228000
0"
#3902234000
0!
1"
#3902240000
0"
#3902245000
1"
#3902251000
0"
#3902256000
1!
#3902257000
1"
#3902262000
0"
#3902268000
1"
#3902273000
0!
0"
#3902279000
1"
#3902291000
1!
0"
#3902298000
0!
#3902304000
1!
#3902305000
1"
#3902311000
0"
#3902316000
1"
#3902322000
0"
#3902328000
1"
#3902333000
0"
#3902338000
0!
#3902339000
1"
#3902344000
0"
#3902349000
1!
#3902350000
1"
#3902356000
0"
#3902362000
1"
#3902367000
0"
#3902372000
0!
#3902373000
1"
#3902378000
0"
#3902384000
1"
#3902389000
0"
#3902395000
1"
#3902406000
0"
#3902407000
1!
#3902414000
0!
#3902421000
1"
#3902426000
0"
#3902432000
1"
#3902437000
0"
#3902443000
1"
#3902448000
0"
#3902454000
1"
#3902459000
0"
#3902465000
1"
#3902470000
0"
#3902476000
1"
#3902481000
0"
#3902487000
1"
#3902492000
0"
#3902498000
1"
#3902503000
0"
#3902509000
1"
#3902521000
1!
0"
#3902528000
0!
#3902535000
1"
#3902540000
0"
#3902546000
1"
#3902551000
0"
#3902557000
1"
#3902562000
0"
#3902568000
1"
#3902573000
0"
#3902579000
1"
#3902585000
0"
#3902590000
1"
#3902596000
0"
#3902601000
1"
#3902607000
0"
#3902612000
1"
#3902618000
0"
#3902623000
1"
#3902635000
1!
0"
#3902643000
0!
#3902649000
1"
#3902654000
0"
#3902660000
1"
#3902666000
0"
#3902671000
1"
#3902677000
0"
#3902682000
1"
#3902688000
0"
#3902693000
1"
#3902699000
0"
#3902705000
1"
#3902710000
0"
#3902716000
1"
#3902721000
0"
#3902727000
1"
#3902732000
0"
#3902737000
1"
#3902749000
1!
0"
#3902757000
0!
#3902763000
1"
#3902769000
0"
#3902774000
1"
#3902780000
0"
#3902786000
1"
#3902791000
0"
#3902797000
1"
#3902802000
0"
#3902808000
1"
#3902813000
0"
#3902819000
1"
#3902824000
0"
#3902830000
1"
#3902835000
0"
#3902841000
1"
#3902846000
0"
#3902852000
1"
#3902863000
0"
#3902864000
1!
#3902871000
0!
#3902888000
1"
#3902893000
0"
#3902899000
1"
#3902904000
0"
#3902910000
1"
#3902915000
0"
#3902921000
1"
#3902926000
0"
#3902932000
1"
#3902937000
0"
#3902943000
1"
#3902948000
0"
#3902954000
1"
#3902960000
0"
#3902965000
1"
#3902971000
0"
#3902976000
1"
#3902988000
1!
0"
#3902994000
0!
#3902999000
1"
#3903004000
1!
#5834399000
0!
#5834420000
0"
#5834428000
1"
#5834433000
0"
#5834439000
1"
#5834444000
0"
#5834450000
1"
#5834455000
0"
#5834461000
1"
#5834466000
0"
#5834472000
1"
#5834478000
0"
#5834483000
1"
#5834489000
0"
#5834494000
1!
#5834495000
1"
#5834500000
0"
#5834521000
0!
#5834522000
1"
#5834527000
0"
#5834533000
1"
#5834545000
1!
0"
#5834551000
0!
#5834557000
1!
#5834558000
1"
#5834563000
0"
#5834568000
0!
#5834569000
1"
#5834574000
0"
#5834580000
1"
#5834585000
0"
#5834591000
1"
#5834596000
0"
#5834602000
1"
#5834623000
0"
#5834629000
1"
#5834650000
0"
#5834656000
1"
#5834661000
0"
#5834667000
1"
#5834672000
0"
#5834678000
1"
#5834689000
0"
#5834690000
1!
#5834696000
0!
#5834702000
1"
#5834708000
0"
#5834713000
1"
#5834719000
0"
#5834724000
1"
#5834730000
0"
#5834751000
1"
#5834756000
0"
#5834761000
1!
#5834762000
1"
#5834768000
0"
#5834774000
1"
#5834779000
0"
#5834784000
0!
#5834785000
1"
#5834790000
0"
#5834796000
1"
#5834801000
0"
#5834807000
1"
#5834818000
0"
#5834819000
1!
#5834843000
0!
#5834865000
1"
#5834870000
0"
#5834876000
1"
#5834881000
0"
#5834887000
1"
#5834893000
0"
#5834898000
1"
#5834904000
0"
#5834909000
1"
#5834915000
0"
#5834920000
1"
#5834926000
0"
#5834932000
1"
#5834954000
0"
#5834974000
1!
#5834975000
1"
#5834981000
0!
0"
#5835002000
1"
#5835014000
1!
0"
#5835022000
0!
#5835028000
1"
#5835033000
0"
#5835039000
1"
#5835044000
0"
#5835050000
1"
#5835056000
0"
#5835061000
1"
#5835067000
0"
#5835072000
1"
#5835078000
0"
#5835084000
1"
#5835089000
0"
#5835095000
1"
#5835100000
0"
#5835105000
1!
#5835106000
1"
#5835111000
0"
#5835112000
0!
#5835117000
1"
#5835129000
1!
0"
#5835136000
0!
#5835155000
1"
#5835160000
0"
#5835166000
1"
#5835171000
0"
#5835177000
1"
#5835182000
0"
#5835188000
1"
#5835194000
0"
#5835199000
1"
#5835205000
0"
#5835210000
1"
#5835216000
0"
#5835221000
1"
#5835227000
0"
#5835233000
1"
#5835238000
0"
#5835243000
1"
#5835255000
1!
0"
#5835263000
0!
#5835269000
1!
#5835270000
1"
#5835275000
0"
#5835280000
0!
#5835281000
1"
#5835286000
0"
#5835292000
1"
#5835297000
0"
#5835303000
1"
#5835308000
0"
#5835314000
1"
#5835319000
0"
#5835325000
1"
#5835331000
0"
#5835336000
1"
#5835342000
0"
#5835347000
1"
#5835353000
0"
#5835358000
1"
#5835370000
1!
0"
#5835378000
0!
#5835384000
1!
#5835385000
1"
#5835390000
0"
#5835395000
0!
#5835396000
1"
#5835401000
0"
#5835407000
1"
#5835412000
0"
#5835418000
1"
#5835423000
0"
#5835429000
1"
#5835434000
0"
#5835440000
1"
#5835445000
0"
#5835451000
1"
#5835457000
0"
#5835462000
1"
#5835468000
0"
#5835473000
1"
#5835485000
1!
0"
#5835493000
0!
#5835498000
1!
#5835499000
1"
#5835505000
0"
#5835510000
0!
#5835511000
1"
#5835516000
0"
#5835521000
1!
#5835522000
1"
#5835527000
0"
#5835533000
1"
#5835539000
0"
#5835544000
0!
#5835545000
1"
#5835550000
0"
#5835555000
1!
#5835556000
1"
#5835561000
0"
#5835567000
0!
1"
#5835573000
0"
#5835578000
1!
#5835579000
1"
#5835584000
0!
0"
#5835590000
1"
#5835601000
0"
#5835602000
1!
#5835609000
0!
#5835615000
1!
#5835616000
1"
#5835621000
0"
#5835627000
1"
#5835633000
0"
#5835638000
1"
#5835644000
0"
#5835649000
0!
#5835650000
1"
#5835655000
0"
#5835660000
1!
#5835661000
1"
#5835667000
0"
#5835672000
1"
#5835678000
0"
#5835684000
1"
#5835689000
0"
#5835695000
1"
#5835700000
0!
0"
#5835706000
1"
#5835717000
0"
#5835718000
1!
#5835725000
0!
#5835732000
1"
#5835737000
0"
#5835743000
1"
#5835748000
0"
#5835754000
1"
#5835759000
0"
#5835765000
1"
#5835770000
0"
#5835776000
1"
#5835781000
0"
#5835787000
1"
#5835792000
0"
#5835798000
1"
#5835803000
0"
#5835809000
1"
#5835814000
0"
#5835820000
1"
#5835832000
1!
0"
#5835839000
0!
#5835857000
1"
#5835862000
0"
#5835868000
1"
#5835873000
0"
#5835879000
1"
#5835884000
0"
#5835890000
1"
#5835895000
0"
#5835901000
1"
#5835906000
0"
#5835912000
1"
#5835917000
0"
#5835923000
1"
#5835928000
0"
#5835934000
1"
#5835940000
0"
#5835945000
1"
#5835957000
1!
0"
#5835964000
0!
#5835971000
1"
#5835976000
0"
#5835982000
1"
#5835987000
0"
#5835993000
1"
#5835998000
0"
#5836004000
1"
#5836009000
0"
#5836015000
1"
#5836021000
0"
#5836026000
1"
#5836032000
0"
#5836037000
1"
#5836043000
0"
#5836048000
1"
#5836054000
0"
#5836059000
1"
#5836071000
1!
0"
#5836079000
0!
#5836085000
1"
#5836091000
0"
#5836096000
1"
#5836102000
0"
#5836107000
1"
#5836113000
0"
#5836118000
1"
#5836124000
0"
#5836130000
1"
#5836135000
0"
#5836141000
1"
#5836146000
0"
#5836152000
1"
#5836157000
0"
#5836163000
1"
#5836168000
0"
#5836174000
1"
#5836185000
0"
#5836186000
1!
#5836193000
0!
#5836199000
1"
#5836205000
0"
#5836211000
1"
#5836216000
0"
#5836222000
1"
#5836227000
0"
#5836233000
1"
#5836238000
0"
#5836244000
1"
#5836249000
0"
#5836255000
1"
#5836260000
0"
#5836266000
1"
#5836271000
0"
#5836277000
1"
#5836282000
0"
#5836288000
1"
#5836299000
0"
#5836300000
1!
#5836306000
0!
#5836311000
1"
#5836316000
1!
#7133603000
0!
#7133624000
0"
#7133632000
1"
#7133637000
0"
#7133643000
1"
#7133648000
0"
#7133654000
1"
#7133660000
0"
#7133665000
1"
#7133671000
0"
#7133676000
1"
#7133682000
0"
#7133688000
1"
#7133693000
0"
#7133698000
1!
#7133699000
1"
#7133704000
0"
#7133726000
0!
1"
#7133732000
0"
#7133737000
1"
#7133749000
1!
0"
#7133755000
0!
#7133761000
1!
#7133762000
1"
#7133767000
0"
#7133772000
0!
#7133773000
1"
#7133778000
0"
#7133784000
1"
#7133790000
0"
#7133795000
1"
#7133801000
0"
#7133806000
1"
#7133828000
0"
#7133833000
1"
#7133854000
0"
#7133860000
1"
#7133865000
0"
#7133871000
1"
#7133877000
0"
#7133882000
1"
#7133894000
1!
0"
#7133900000
0!
#7133906000
1"
#7133912000
0"
#7133917000
1"
#7133923000
0"
#7133929000
1"
#7133934000
0"
#7133955000
1"
#7133960000
0"
#7133966000
1!
#7133967000
1"
#7133972000
0"
#7133978000
1"
#7133983000
0"
#7133988000
0!
#7133989000
1"
#7133994000
0"
#7134000000
1"
#7134005000
0"
#7134011000
1"
#7134023000
1!
0"
#7134047000
0!
#7134069000
1"
#7134075000
0"
#7134080000
1"
#7134086000
0"
#7134091000
1"
#7134097000
0"
#7134102000
1"
#7134108000
0"
#7134114000
1"
#7134119000
0"
#7134125000
1"
#7134130000
0"
#7134136000
1"
#7134158000
0"
#7134178000
1!
#7134179000
1"
#7134185000
0!
0"
#7134206000
1"
#7134218000
1!
0"
#7134226000
0!
#7134232000
1"
#7134238000
0"
#7134243000
1"
#7134249000
0"
#7134254000
1"
#7134260000
0"
#7134266000
1"
#7134271000
0"
#7134277000
1"
#7134282000
0"
#7134288000
1"
#7134293000
0"
#7134299000
1"
#7134304000
0"
#7134310000
1"
#7134315000
0"
#7134321000
1"
#7134332000
0"
#7134333000
1!
#7134340000
0!
#7134347000
1"
#7134352000
0"
#7134358000
1"
#7134363000
0"
#7134369000
1"
#7134374000
0"
#7134380000
1"
#7134385000
0"
#7134391000
1"
#7134396000
0"
#7134402000
1"
#7134407000
0"
#7134413000
1"
#7134418000
0"
#7134424000
1"
#7134430000
0"
#7134435000
1"
#7134447000
1!
0"
#7134454000
0!
#7134460000
1!
#7134461000
1"
#7134467000
0"
#7134472000
0!
#7134473000
1"
#7134478000
0"
#7134484000
1"
#7134489000
0"
#7134495000
1"
#7134500000
0"
#7134506000
1"
#7134511000
0"
#7134517000
1"
#7134522000
0"
#7134528000
1"
#7134533000
0"
#7134539000
1"
#7134544000
0"
#7134550000
1"
#7134561000
0"
#7134562000
1!
#7134569000
0!
#7134575000
1!
#7134576000
1"
#7134581000
0"
#7134587000
0!
1"
#7134593000
0"
#7134598000
1"
#7134604000
0"
#7134610000
1"
#7134615000
0"
#7134621000
1"
#7134626000
0"
#7134632000
1"
#7134637000
0"
#7134643000
1"
#7134648000
0"
#7134654000
1"
#7134659000
0"
#7134665000
1"
#7134676000
0"
#7134677000
1!
#7134684000
0!
#7134690000
1!
#7134691000
1"
#7134696000
0"
#7134702000
0!
1"
#7134708000
0"
#7134713000
1!
#7134714000
1"
#7134719000
0"
#7134725000
1"
#7134730000
0"
#7134735000
0!
#7134736000
1"
#7134742000
0"
#7134747000
1"
#7134753000
0"
#7134758000
1!
#7134759000
1"
#7134764000
0"
#7134770000
1"
#7134775000
0!
0"
#7134781000
1"
#7134793000
1!
0"
#7134800000
0!
#7134806000
1!
#7134807000
1"
#7134813000
0"
#7134818000
1"
#7134824000
0"
#7134830000
1"
#7134835000
0"
#7134840000
0!
#7134841000
1"
#7134846000
0"
#7134851000
1!
#7134852000
1"
#7134858000
0"
#7134863000
1"
#7134869000
0"
#7134875000
1"
#7134880000
0"
#7134886000
1"
#7134891000
0!
0"
#7134897000
1"
#7134908000
0"
#7134909000
1!
#7134916000
0!
#7134923000
1"
#7134928000
0"
#7134934000
1"
#7134939000
0"
#7134945000
1"
#7134950000
0"
#7134956000
1"
#7134961000
0"
#7134967000
1"
#7134972000
0"
#7134978000
1"
#7134983000
0"
#7134989000
1"
#7134995000
0"
#7135000000
1"
#7135006000
0"
#7135011000
1"
#7135023000
1!
0"
#7135031000
0!
#7135037000
1"
#7135042000
0"
#7135048000
1"
#7135053000
0"
#7135059000
1"
#7135064000
0"
#7135070000
1"
#7135076000
0"
#7135081000
1"
#7135087000
0"
#7135092000
1"
#7135098000
0"
#7135103000
1"
#7135109000
0"
#7135115000
1"
#7135120000
0"
#7135125000
1"
#7135137000
1!
0"
#7135145000
0!
#7135151000
1"
#7135157000
0"
#7135162000
1"
#7135168000
0"
#7135173000
1"
#7135179000
0"
#7135185000
1"
#7135190000
0"
#7135196000
1"
#7135201000
0"
#7135207000
1"
#7135212000
0"
#7135218000
1"
#7135223000
0"
#7135229000
1"
#7135234000
0"
#7135240000
1"
#7135251000
0"
#7135252000
1!
#7135259000
0!
#7135266000
1"
#7135271000
0"
#7135277000
1"
#7135282000
0"
#7135288000
1"
#7135293000
0"
#7135299000
1"
#7135304000
0"
#7135310000
1"
#7135315000
0"
#7135321000
1"
#7135326000
0"
#7135332000
1"
#7135337000
0"
#7135343000
1"
#7135348000
0"
#7135354000
1"
#7135366000
1!
0"
#7135373000
0!
#7135380000
1"
#7135385000
0"
#7135391000
1"
#7135396000
0"
#7135402000
1"
#7135407000
0"
#7135413000
1"
#7135418000
0"
#7135424000
1"
#7135430000
0"
#7135435000
1"
#7135441000
0"
#7135446000
1"
#7135452000
0"
#7135457000
1"
#7135463000
0"
#7135468000
1"
#7135480000
1!
0"
#7135486000
0!
#7135508000
1"
#7135512000
1!
