logic-capture/TH8A seq.vcd
$timescale 1 ns $end
$scope module top $end
$var wire 1 ! Channel_0 $end
$var wire 1 " Channel_1 $end
$upscope $end
$enddefinitions $end
#0
1!
1"
#6552041000
0!
#6552061000
0"
#6552069000
1"
#6552075000
0"
#6552081000
1"
#6552086000
0"
#6552092000
1"
#6552097000
0"
#6552103000
1"
#6552108000
0"
#6552114000
1"
#6552119000
0"
#6552125000
1"
#6552130000
0"
#6552135000
1!
#6552136000
1"
#6552142000
0"
#6552163000
0!
#6552164000
1"
#6552169000
0"
#6552175000
1"
#6552186000
1!
0"
#6552192000
0!
#6552199000
1"
#6552204000
0"
#6552210000
1"
#6552215000
0"
#6552221000
1"
#6552226000
0"
#6552232000
1"
#6552237000
0"
#6552243000
1"
#6552264000
0"
#6552270000
1"
#6552291000
0"
#6552297000
1"
#6552302000
0"
#6552308000
1"
#6552313000
0"
#6552319000
1"
#6552330000
0"
#6552331000
1!
#6552337000
0!
#6552343000
1"
#6552349000
0"
#6552354000
1"
#6552360000
0"
#6552365000
1"
#6552371000
0"
#6552392000
1"
#6552397000
0"
#6552403000
1!
1"
#6552409000
0"
#6552415000
1"
#6552420000
0"
#6552425000
0!
#6552426000
1"
#6552431000
0"
#6552437000
1"
#6552442000
0"
#6552448000
1"
#6552459000
0"
#6552460000
1!
#6552484000
0!
#6552506000
1"
#6552511000
0"
#6552517000
1"
#6552523000
0"
#6552528000
1"
#6552534000
0"
#6552539000
1"
#6552545000
0"
#6552550000
1"
#6552556000
0"
#6552562000
1"
#6552567000
0"
#6552573000
1"
#6552595000
0"
#6552615000
1!
#6552616000
1"
#6552622000
0!
0"
#6552643000
1"
#6552655000
1!
0"
#6552663000
0!
#6552669000
1"
#6552675000
0"
#6552680000
1"
#6552686000
0"
#6552691000
1"
#6552697000
0"
#6552702000
1"
#6552708000
0"
#6552714000
1"
#6552719000
0"
#6552725000
1"
#6552730000
0"
#6552736000
1"
#6552741000
0"
#6552747000
1"
#6552752000
0"
#6552758000
1"
#6552769000
0"
#6552770000
1!
#6552777000
0!
#6552791000
1"
#6552797000
0"
#6552802000
1"
#6552808000
0"
#6552813000
1"
#6552819000
0"
#6552824000
1"
#6552830000
0"
#6552836000
1"
#6552841000
0"
#6552846000
1!
#6552847000
1"
#6552852000
0"
#6552858000
0!
1"
#6552864000
0"
#6552869000
1!
#6552870000
1"
#6552875000
0!
0"
#6552881000
1"
#6552892000
0"
#6552893000
1!
#6552900000
0!
#6552906000
1!
#6552907000
1"
#6552912000
0"
#6552918000
0!
1"
#6552924000
0"
#6552929000
1"
#6552935000
0"
#6552941000
1"
#6552946000
0"
#6552952000
1"
#6552957000
0"
#6552963000
1"
#6552968000
0"
#6552974000
1"
#6552979000
0"
#6552985000
1"
#6552990000
0"
#6552996000
1"
#6553007000
0"
#6553008000
1!
#6553015000
0!
#6553021000
1!
#6553022000
1"
#6553027000
0"
#6553033000
0!
1"
#6553039000
0"
#6553044000
1"
#6553050000
0"
#6553055000
1"
#6553061000
0"
#6553066000
1"
#6553072000
0"
#6553078000
1"
#6553083000
0"
#6553089000
1"
#6553094000
0"
#6553100000
1"
#6553105000
0"
#6553110000
1"
#6553122000
1!
0"
#6553130000
0!
#6553136000
1"
#6553142000
0"
#6553147000
1!
#6553148000
1"
#6553153000
0"
#6553159000
1"
#6553164000
0"
#6553170000
1"
#6553176000
0"
#6553181000
1"
#6553187000
0"
#6553193000
1"
#6553198000
0"
#6553204000
1"
#6553209000
0"
#6553214000
0!
#6553215000
1"
#6553220000
0"
#6553226000
1"
#6553237000
0"
#6553238000
1!
#6553245000
0!
#6553251000
1!
#6553252000
1"
#6553257000
0"
#6553263000
1"
#6553269000
0"
#6553274000
0!
#6553275000
1"
#6553280000
0"
#6553285000
1!
#6553286000
1"
#6553291000
0"
#6553297000
1"
#6553303000
0"
#6553308000
0!
1"
#6553314000
0"
#6553320000
1"
#6553325000
0"
#6553330000
1!
#6553331000
1"
#6553336000
0"
#6553337000
0!
#6553342000
1"
#6553354000
1!
0"
#6553361000
0!
#6553368000
1"
#6553373000
0"
#6553379000
1"
#6553384000
0"
#6553390000
1"
#6553395000
0"
#6553401000
1"
#6553407000
0"
#6553412000
1"
#6553418000
0"
#6553423000
1"
#6553429000
0"
#6553434000
1"
#6553440000
0"
#6553446000
1"
#6553451000
0"
#6553456000
1"
#6553468000
1!
0"
#6553476000
0!
#6553493000
1"
#6553498000
0"
#6553504000
1"
#6553509000
0"
#6553515000
1"
#6553520000
0"
#6553526000
1"
#6553532000
0"
#6553537000
1"
#6553543000
0"
#6553548000
1"
#6553554000
0"
#6553559000
1"
#6553565000
0"
#6553571000
1"
#6553576000
0"
#6553581000
1"
#6553593000
1!
0"
#6553601000
0!
#6553607000
1"
#6553613000
0"
#6553618000
1"
#6553624000
0"
#6553629000
1"
#6553635000
0"
#6553640000
1"
#6553646000
0"
#6553652000
1"
#6553657000
0"
#6553663000
1"
#6553668000
0"
#6553674000
1"
#6553679000
0"
#6553685000
1"
#6553690000
0"
#6553696000
1"
#6553707000
0"
#6553708000
1!
#6553715000
0!
#6553722000
1"
#6553727000
0"
#6553733000
1"
#6553738000
0"
#6553744000
1"
#6553749000
0"
#6553755000
1"
#6553760000
0"
#6553766000
1"
#6553771000
0"
#6553777000
1"
#6553782000
0"
#6553788000
1"
#6553793000
0"
#6553799000
1"
#6553804000
0"
#6553810000
1"
#6553822000
1!
0"
#6553829000
0!
#6553836000
1"
#6553841000
0"
#6553847000
1"
#6553852000
0"
#6553858000
1"
#6553863000
0"
#6553869000
1"
#6553874000
0"
#6553880000
1"
#6553886000
0"
#6553891000
1"
#6553897000
0"
#6553902000
1"
#6553908000
0"
#6553913000
1"
#6553919000
0"
#6553924000
1"
#6553936000
1!
0"
#6553942000
0!
#6553948000
1"
#6553952000
1!
#6819767000
0!
#6819788000
0"
#6819796000
1"
#6819801000
0"
#6819807000
1"
#6819813000
0"
#6819818000
1"
#6819824000
0"
#6819829000
1"
#6819835000
0"
#6819840000
1"
#6819846000
0"
#6819852000
1"
#6819857000
0"
#6819862000
1!
#6819863000
1"
#6819868000
0"
#6819890000
0!
1"
#6819896000
0"
#6819901000
1"
#6819913000
1!
0"
#6819919000
0!
#6819925000
1"
#6819931000
0"
#6819937000
1"
#6819942000
0"
#6819948000
1"
#6819953000
0"
#6819959000
1"
#6819964000
0"
#6819970000
1"
#6819991000
0"
#6819997000
1"
#6820018000
0"
#6820024000
1"
#6820029000
0"
#6820035000
1"
#6820040000
0"
#6820045000
1"
#6820057000
1!
0"
#6820063000
0!
#6820085000
1"
#6820090000
0"
#6820096000
1"
#6820117000
0"
#6820123000
1"
#6820128000
0"
#6820134000
1"
#6820139000
0"
#6820144000
1!
#6820145000
1"
#6820150000
0"
#6820156000
1"
#6820162000
0"
#6820167000
0!
#6820168000
1"
#6820173000
0"
#6820179000
1"
#6820184000
0"
#6820189000
1"
#6820234000
1!
0"
#6820241000
0!
#6820248000
1"
#6820253000
0"
#6820259000
1"
#6820264000
0"
#6820270000
1"
#6820275000
0"
#6820281000
1"
#6820286000
0"
#6820292000
1"
#6820297000
0"
#6820303000
1"
#6820325000
0"
#6820346000
1"
#6820368000
0"
#6820373000
1!
#6820374000
1"
#6820379000
0!
0"
#6820385000
1"
#6820396000
0"
#6820397000
1!
#6820404000
0!
#6820411000
1"
#6820416000
0"
#6820422000
1"
#6820427000
0"
#6820433000
1"
#6820438000
0"
#6820444000
1"
#6820449000
0"
#6820455000
1"
#6820460000
0"
#6820466000
1"
#6820471000
0"
#6820477000
1"
#6820483000
0"
#6820488000
1"
#6820494000
0"
#6820499000
1"
#6820511000
1!
0"
#6820519000
0!
#6820525000
1"
#6820530000
0"
#6820536000
1"
#6820541000
0"
#6820547000
1"
#6820553000
0"
#6820558000
1"
#6820564000
0"
#6820569000
1"
#6820575000
0"
#6820580000
1!
#6820581000
1"
#6820586000
0"
#6820591000
0!
#6820592000
1"
#6820597000
0"
#6820603000
1"
#6820609000
0"
#6820614000
1"
#6820626000
1!
0"
#6820633000
0!
#6820639000
1!
#6820640000
1"
#6820646000
0"
#6820651000
0!
#6820652000
1"
#6820657000
0"
#6820663000
1"
#6820668000
0"
#6820674000
1"
#6820679000
0"
#6820685000
1"
#6820690000
0"
#6820696000
1"
#6820701000
0"
#6820707000
1"
#6820712000
0"
#6820718000
1"
#6820723000
0"
#6820729000
1"
#6820741000
1!
0"
#6820748000
0!
#6820754000
1!
#6820755000
1"
#6820761000
0"
#6820766000
0!
1"
#6820772000
0"
#6820778000
1"
#6820783000
0"
#6820789000
1"
#6820794000
0"
#6820800000
1"
#6820805000
0"
#6820811000
1"
#6820816000
0"
#6820822000
1"
#6820827000
0"
#6820833000
1"
#6820838000
0"
#6820844000
1"
#6820855000
0"
#6820856000
1!
#6820863000
0!
#6820870000
1"
#6820875000
0"
#6820880000
1!
#6820881000
1"
#6820886000
0"
#6820892000
1"
#6820898000
0"
#6820903000
1"
#6820909000
0"
#6820915000
1"
#6820920000
0"
#6820926000
1"
#6820931000
0"
#6820936000
0!
#6820937000
1"
#6820942000
0"
#6820948000
1!
#6820949000
1"
#6820954000
0!
0"
#6820959000
1"
#6820971000
1!
0"
#6820979000
0!
#6820985000
1!
#6820986000
1"
#6820991000
0"
#6820997000
1"
#6821002000
0"
#6821008000
0!
1"
#6821014000
0"
#6821019000
1!
#6821020000
1"
#6821025000
0"
#6821031000
1"
#6821036000
0"
#6821041000
0!
#6821042000
1"
#6821048000
0"
#6821053000
1"
#6821059000
0"
#6821064000
1"
#6821070000
0"
#6821075000
1"
#6821087000
1!
0"
#6821095000
0!
#6821101000
1"
#6821106000
0"
#6821112000
1"
#6821117000
0"
#6821123000
1"
#6821129000
0"
#6821134000
1"
#6821140000
0"
#6821145000
1"
#6821151000
0"
#6821156000
1"
#6821162000
0"
#6821168000
1"
#6821173000
0"
#6821179000
1"
#6821184000
0"
#6821189000
1"
#6821201000
1!
0"
#6821209000
0!
#6821215000
1"
#6821221000
0"
#6821226000
1"
#6821232000
0"
#6821237000
1"
#6821243000
0"
#6821249000
1"
#6821254000
0"
#6821260000
1"
#6821265000
0"
#6821271000
1"
#6821276000
0"
#6821282000
1"
#6821287000
0"
#6821293000
1"
#6821298000
0"
#6821304000
1"
#6821315000
0"
#6821316000
1!
#6821323000
0!
#6821330000
1"
#6821335000
0"
#6821341000
1"
#6821346000
0"
#6821352000
1"
#6821357000
0"
#6821363000
1"
#6821368000
0"
#6821374000
1"
#6821379000
0"
#6821385000
1"
#6821390000
0"
#6821396000
1"
#6821401000
0"
#6821407000
1"
#6821413000
0"
#6821418000
1"
#6821430000
1!
0"
#6821437000
0!
#6821444000
1"
#6821449000
0"
#6821455000
1"
#6821460000
0"
#6821466000
1"
#6821471000
0"
#6821477000
1"
#6821482000
0"
#6821488000
1"
#6821494000
0"
#6821499000
1"
#6821505000
0"
#6821510000
1"
#6821516000
0"
#6821522000
1"
#6821527000
0"
#6821532000
1"
#6821544000
1!
0"
#6821552000
0!
#6821558000
1"
#6821564000
0"
#6821569000
1"
#6821575000
0"
#6821580000
1"
#6821586000
0"
#6821591000
1"
#6821597000
0"
#6821603000
1"
#6821608000
0"
#6821614000
1"
#6821619000
0"
#6821625000
1"
#6821630000
0"
#6821636000
1"
#6821641000
0"
#6821647000
1"
#6821658000
0"
#6821659000
1!
#6821665000
0!
#6821684000
1"
#6821688000
1!
#7176506000
0!
#7176526000
0"
#7176534000
1"
#7176539000
0"
#7176545000
1"
#7176551000
0"
#7176556000
1"
#7176562000
0"
#7176567000
1"
#7176573000
0"
#7176578000
1"
#7176584000
0"
#7176590000
1"
#7176595000
0"
#7176600000
1!
#7176601000
1"
#7176606000
0"
#7176628000
0!
1"
#7176634000
0"
#7176639000
1"
#7176651000
1!
0"
#7176657000
0!
#7176664000
1"
#7176669000
0"
#7176675000
1"
#7176680000
0"
#7176686000
1"
#7176691000
0"
#7176697000
1"
#7176702000
0"
#7176708000
1"
#7176729000
0"
#7176735000
1"
#7176756000
0"
#7176762000
1"
#7176767000
0"
#7176773000
1"
#7176778000
0"
#7176783000
1"
#7176795000
1!
0"
#7176801000
0!
#7176808000
1"
#7176813000
0"
#7176819000
1"
#7176824000
0"
#7176830000
1"
#7176835000
0"
#7176857000
1"
#7176862000
0"
#7176867000
1!
#7176868000
1"
#7176873000
0"
#7176879000
1"
#7176885000
0"
#7176890000
0!
#7176891000
1"
#7176896000
0"
#7176902000
1"
#7176907000
0"
#7176912000
1"
#7176924000
1!
0"
#7176949000
0!
#7176971000
1"
#7176976000
0"
#7176982000
1"
#7176987000
0"
#7176993000
1"
#7176998000
0"
#7177004000
1"
#7177009000
0"
#7177015000
1"
#7177020000
0"
#7177026000
1"
#7177032000
0"
#7177037000
1"
#7177060000
0"
#7177080000
1!
#7177081000
1"
#7177086000
0!
0"
#7177108000
1"
#7177120000
1!
0"
#7177127000
0!
#7177134000
1"
#7177139000
0"
#7177145000
1"
#7177150000
0"
#7177156000
1"
#7177161000
0"
#7177167000
1"
#7177172000
0"
#7177178000
1"
#7177184000
0"
#7177189000
1"
#7177195000
0"
#7177200000
1"
#7177206000
0"
#7177211000
1"
#7177217000
0"
#7177222000
1"
#7177234000
1!
0"
#7177242000
0!
#7177248000
1"
#7177253000
0"
#7177259000
1"
#7177265000
0"
#7177270000
1"
#7177276000
0"
#7177281000
1"
#7177287000
0"
#7177292000
1"
#7177298000
0"
#7177303000
1!
#7177304000
1"
#7177309000
0"
#7177315000
0!
1"
#7177321000
0"
#7177326000
1!
#7177327000
1"
#7177332000
0!
0"
#7177338000
1"
#7177349000
0"
#7177350000
1!
#7177357000
0!
#7177363000
1!
#7177364000
1"
#7177369000
0"
#7177375000
0!
1"
#7177381000
0"
#7177386000
1"
#7177392000
0"
#7177397000
1"
#7177403000
0"
#7177408000
1"
#7177414000
0"
#7177420000
1"
#7177425000
0"
#7177431000
1"
#7177436000
0"
#7177442000
1"
#7177447000
0"
#7177453000
1"
#7177464000
1!
0"
#7177472000
0!
#7177478000
1!
#7177479000
1"
#7177484000
0"
#7177489000
0!
#7177490000
1"
#7177495000
0"
#7177501000
1"
#7177507000
0"
#7177512000
1"
#7177518000
0"
#7177523000
1"
#7177529000
0"
#7177534000
1"
#7177540000
0"
#7177546000
1"
#7177551000
0"
#7177557000
1"
#7177562000
0"
#7177567000
1"
#7177579000
1!
0"
#7177587000
0!
#7177593000
1"
#7177599000
0"
#7177604000
1!
#7177605000
1"
#7177610000
0"
#7177616000
1"
#7177621000
0"
#7177627000
1"
#7177632000
0"
#7177638000
1"
#7177644000
0"
#7177649000
1"
#7177655000
0"
#7177660000
0!
#7177661000
1"
#7177666000
0"
#7177671000
1!
#7177672000
1"
#7177678000
0!
0"
#7177683000
1"
#7177695000
1!
0"
#7177703000
0!
#7177709000
1!
#7177710000
1"
#7177715000
0"
#7177721000
1"
#7177726000
0"
#7177731000
0!
#7177732000
1"
#7177737000
0"
#7177743000
1!
1"
#7177749000
0"
#7177755000
1"
#7177760000
0"
#7177765000
0!
#7177766000
1"
#7177771000
0"
#7177777000
1"
#7177782000
0"
#7177788000
1!
1"
#7177794000
0!
0"
#7177799000
1"
#7177811000
1!
0"
#7177819000
0!
#7177825000
1"
#7177831000
0"
#7177836000
1"
#7177842000
0"
#7177847000
1"
#7177853000
0"
#7177859000
1"
#7177864000
0"
#7177870000
1"
#7177875000
0"
#7177881000
1"
#7177886000
0"
#7177892000
1"
#7177897000
0"
#7177903000
1"
#7177908000
0"
#7177914000
1"
#7177925000
0"
#7177926000
1!
#7177933000
0!
#7177940000
1"
#7177945000
0"
#7177951000
1"
#7177956000
0"
#7177962000
1"
#7177967000
0"
#7177973000
1"
#7177978000
0"
#7177984000
1"
#7177989000
0"
#7177995000
1"
#7178000000
0"
#7178006000
1"
#7178011000
0"
#7178017000
1"
#7178023000
0"
#7178028000
1"
#7178040000
1!
0"
#7178047000
0!
#7178054000
1"
#7178059000
0"
#7178065000
1"
#7178070000
0"
#7178076000
1"
#7178081000
0"
#7178087000
1"
#7178092000
0"
#7178098000
1"
#7178104000
0"
#7178109000
1"
#7178115000
0"
#7178120000
1"
#7178126000
0"
#7178131000
1"
#7178137000
0"
#7178142000
1"
#7178154000
1!
0"
#7178162000
0!
#7178168000
1"
#7178174000
0"
#7178179000
1"
#7178185000
0"
#7178190000
1"
#7178196000
0"
#7178201000
1"
#7178207000
0"
#7178213000
1"
#7178218000
0"
#7178224000
1"
#7178229000
0"
#7178235000
1"
#7178240000
0"
#7178246000
1"
#7178251000
0"
#7178257000
1"
#7178268000
0"
#7178269000
1!
#7178276000
0!
#7178282000
1"
#7178288000
0"
#7178294000
1"
#7178299000
0"
#7178305000
1"
#7178310000
0"
#7178316000
1"
#7178321000
0"
#7178327000
1"
#7178332000
0"
#7178338000
1"
#7178343000
0"
#7178349000
1"
#7178354000
0"
#7178360000
1"
#7178365000
0"
#7178371000
1"
#7178382000
0"
#7178383000
1!
#7178389000
0!
#7178407000
1"
#7178411000
1!
#7542138000
0!
#7542158000
0"
#7542166000
1"
#7542172000
0"
#7542177000
1"
#7542183000
0"
#7542188000
1"
#7542194000
0"
#7542200000
1"
#7542205000
0"
#7542211000
1"
#7542216000
0"
#7542222000
1"
#7542227000
0"
#7542232000
1!
#7542233000
1"
#7542239000
0"
#7542260000
0!
#7542261000
1"
#7542266000
0"
#7542271000
1"
#7542283000
1!
0"
#7542289000
0!
#7542296000
1"
#7542301000
0"
#7542307000
1"
#7542312000
0"
#7542318000
1"
#7542323000
0"
#7542329000
1"
#7542334000
0"
#7542340000
1"
#7542361000
0"
#7542367000
1"
#7542388000
0"
#7542394000
1"
#7542399000
0"
#7542405000
1"
#7542410000
0"
#7542416000
1"
#7542427000
0"
#7542428000
1!
#7542434000
0!
#7542440000
1"
#7542445000
0"
#7542451000
1"
#7542456000
0"
#7542462000
1"
#7542468000
0"
#7542489000
1"
#7542494000
0"
#7542499000
1!
#7542500000
1"
#7542506000
0"
#7542511000
1"
#7542517000
0"
#7542522000
0!
#7542523000
1"
#7542528000
0"
#7542534000
1"
#7542539000
0"
#7542545000
1"
#7542556000
0"
#7542557000
1!
#7542581000
0!
#7542603000
1"
#7542608000
0"
#7542614000
1"
#7542619000
0"
#7542625000
1"
#7542630000
0"
#7542636000
1"
#7542642000
0"
#7542647000
1"
#7542653000
0"
#7542658000
1"
#7542664000
0"
#7542669000
1"
#7542692000
0"
#7542712000
1!
#7542713000
1"
#7542718000
0"
#7542719000
0!
#7542740000
1"
#7542752000
1!
0"
#7542760000
0!
#7542766000
1"
#7542771000
0"
#7542777000
1"
#7542782000
0"
#7542788000
1"
#7542793000
0"
#7542799000
1"
#7542805000
0"
#7542810000
1"
#7542816000
0"
#7542821000
1"
#7542827000
0"
#7542832000
1"
#7542838000
0"
#7542844000
1"
#7542849000
0"
#7542854000
1"
#7542866000
1!
0"
#7542874000
0!
#7542880000
1"
#7542886000
0"
#7542891000
1"
#7542897000
0"
#7542902000
1"
#7542908000
0"
#7542914000
1"
#7542919000
0"
#7542925000
1"
#7542930000
0"
#7542935000
1!
#7542936000
1"
#7542941000
0"
#7542947000
0!
1"
#7542953000
0"
#7542958000
1"
#7542964000
0"
#7542969000
1"
#7542981000
1!
0"
#7542989000
0!
#7542995000
1!
#7542996000
1"
#7543001000
0"
#7543006000
0!
#7543007000
1"
#7543012000
0"
#7543018000
1"
#7543023000
0"
#7543029000
1"
#7543034000
0"
#7543040000
1"
#7543045000
0"
#7543051000
1"
#7543056000
0"
#7543062000
1"
#7543068000
0"
#7543073000
1"
#7543079000
0"
#7543084000
1"
#7543096000
1!
0"
#7543104000
0!
#7543109000
1!
#7543110000
1"
#7543116000
0"
#7543121000
0!
#7543122000
1"
#7543127000
0"
#7543133000
1"
#7543138000
0"
#7543144000
1"
#7543149000
0"
#7543155000
1"
#7543160000
0"
#7543166000
1"
#7543171000
0"
#7543177000
1"
#7543182000
0"
#7543188000
1"
#7543194000
0"
#7543199000
1"
#7543211000
1!
0"
#7543218000
0!
#7543234000
1"
#7543239000
0"
#7543244000
1!
#7543245000
1"
#7543251000
0"
#7543257000
1"
#7543262000
0"
#7543268000
1"
#7543273000
0"
#7543279000
1"
#7543284000
0"
#7543290000
1"
#7543295000
0"
#7543301000
0!
1"
#7543307000
0"
#7543312000
1!
#7543313000
1"
#7543318000
0!
0"
#7543324000
1"
#7543335000
0"
#7543336000
1!
#7543343000
0!
#7543349000
1!
#7543350000
1"
#7543355000
0"
#7543361000
1"
#7543367000
0"
#7543372000
0!
#7543373000
1"
#7543378000
0"
#7543383000
1!
#7543384000
1"
#7543389000
0"
#7543395000
1"
#7543401000
0"
#7543406000
0!
1"
#7543412000
0"
#7543418000
1"
#7543423000
0"
#7543429000
1"
#7543434000
0"
#7543439000
1"
#7543451000
1!
0"
#7543459000
0!
#7543465000
1"
#7543471000
0"
#7543476000
1"
#7543482000
0"
#7543487000
1"
#7543493000
0"
#7543499000
1"
#7543504000
0"
#7543510000
1"
#7543515000
0"
#7543521000
1"
#7543526000
0"
#7543532000
1"
#7543537000
0"
#7543543000
1"
#7543548000
0"
#7543554000
1"
#7543565000
0"
#7543566000
1!
#7543573000
0!
#7543580000
1"
#7543585000
0"
#7543591000
1"
#7543596000
0"
#7543602000
1"
#7543607000
0"
#7543613000
1"
#7543618000
0"
#7543624000
1"
#7543629000
0"
#7543635000
1"
#7543640000
0"
#7543646000
1"
#7543651000
0"
#7543657000
1"
#7543663000
0"
#7543668000
1"
#7543680000
1!
0"
#7543687000
0!
#7543694000
1"
#7543699000
0"
#7543705000
1"
#7543710000
0"
#7543716000
1"
#7543721000
0"
#7543727000
1"
#7543732000
0"
#7543738000
1"
#7543744000
0"
#7543749000
1"
#7543755000
0"
#7543760000
1"
#7543766000
0"
#7543771000
1"
#7543777000
0"
#7543782000
1"
#7543794000
1!
0"
#7543802000
0!
#7543808000
1"
#7543813000
0"
#7543819000
1"
#7543825000
0"
#7543830000
1"
#7543836000
0"
#7543841000
1"
#7543847000
0"
#7543853000
1"
#7543858000
0"
#7543864000
1"
#7543869000
0"
#7543875000
1"
#7543880000
0"
#7543886000
1"
#7543891000
0"
#7543897000
1"
#7543908000
0"
#7543909000
1!
#7543916000
0!
#7543933000
1"
#7543938000
0"
#7543944000
1"
#7543949000
0"
#7543955000
1"
#7543960000
0"
#7543966000
1"
#7543971000
0"
#7543977000
1"
#7543982000
0"
#7543988000
1"
#7543993000
0"
#7543999000
1"
#7544004000
0"
#7544010000
1"
#7544015000
0"
#7544021000
1"
#7544032000
0"
#7544033000
1!
#7544039000
0!
#7544044000
1"
#7544049000
1!
#7790660000
0!
#7790681000
0"
#7790689000
1"
#7790694000
0"
#7790700000
1"
#7790705000
0"
#7790711000
1"
#7790717000
0"
#7790722000
1"
#7790728000
0"
#7790733000
1"
#7790739000
0"
#7790744000
1"
#7790750000
0"
#7790755000
1!
#7790756000
1"
#7790761000
0"
#7790783000
0!
1"
#7790789000
0"
#7790794000
1"
#7790806000
1!
0"
#7790812000
0!
#7790818000
1"
#7790824000
0"
#7790829000
1"
#7790835000
0"
#7790841000
1"
#7790846000
0"
#7790852000
1"
#7790857000
0"
#7790863000
1"
#7790884000
0"
#7790890000
1"
#7790911000
0"
#7790917000
1"
#7790922000
0"
#7790928000
1"
#7790933000
0"
#7790938000
1"
#7790950000
1!
0"
#7790956000
0!
#7790963000
1"
#7790968000
0"
#7790974000
1"
#7790979000
0"
#7790985000
1"
#7790990000
0"
#7791012000
1"
#7791017000
0"
#7791022000
1!
#7791023000
1"
#7791028000
0"
#7791034000
1"
#7791040000
0"
#7791045000
0!
1"
#7791051000
0"
#7791057000
1"
#7791062000
0"
#7791067000
1"
#7791079000
1!
0"
#7791104000
0!
#7791126000
1"
#7791131000
0"
#7791137000
1"
#7791142000
0"
#7791148000
1"
#7791153000
0"
#7791159000
1"
#7791164000
0"
#7791170000
1"
#7791175000
0"
#7791181000
1"
#7791186000
0"
#7791192000
1"
#7791215000
0"
#7791235000
1!
#7791236000
1"
#7791241000
0!
0"
#7791263000
1"
#7791274000
0"
#7791275000
1!
#7791282000
0!
#7791289000
1"
#7791294000
0"
#7791300000
1"
#7791305000
0"
#7791311000
1"
#7791316000
0"
#7791322000
1"
#7791327000
0"
#7791333000
1"
#7791338000
0"
#7791344000
1"
#7791349000
0"
#7791355000
1"
#7791361000
0"
#7791366000
1"
#7791372000
0"
#7791377000
1"
#7791389000
1!
0"
#7791397000
0!
#7791403000
1"
#7791408000
0"
#7791414000
1"
#7791419000
0"
#7791425000
1"
#7791431000
0"
#7791436000
1"
#7791442000
0"
#7791447000
1"
#7791453000
0"
#7791458000
1!
#7791459000
1"
#7791464000
0"
#7791469000
0!
#7791470000
1"
#7791475000
0"
#7791481000
1!
#7791482000
1"
#7791487000
0!
0"
#7791493000
1"
#7791504000
0"
#7791505000
1!
#7791512000
0!
#7791518000
1!
#7791520000
1"
#7791525000
0"
#7791530000
0!
#7791531000
1"
#7791536000
0"
#7791542000
1"
#7791547000
0"
#7791553000
1"
#7791558000
0"
#7791564000
1"
#7791569000
0"
#7791575000
1"
#7791581000
0"
#7791586000
1"
#7791592000
0"
#7791597000
1"
#7791603000
0"
#7791608000
1"
#7791620000
1!
0"
#7791628000
0!
#7791634000
1!
1"
#7791640000
0"
#7791645000
0!
#7791646000
1"
#7791651000
0"
#7791657000
1"
#7791662000
0"
#7791668000
1"
#7791673000
0"
#7791679000
1"
#7791684000
0"
#7791690000
1"
#7791695000
0"
#7791701000
1"
#7791707000
0"
#7791712000
1"
#7791718000
0"
#7791723000
1"
#7791735000
1!
0"
#7791743000
0!
#7791749000
1"
#7791754000
0"
#7791760000
1!
1"
#7791766000
0"
#7791772000
1"
#7791777000
0"
#7791783000
1"
#7791788000
0"
#7791794000
1"
#7791799000
0"
#7791805000
1"
#7791810000
0"
#7791816000
0!
1"
#7791822000
0"
#7791827000
1!
#7791828000
1"
#7791833000
0!
0"
#7791839000
1"
#7791850000
0"
#7791851000
1!
#7791858000
0!
#7791864000
1!
#7791865000
1"
#7791871000
0"
#7791876000
1"
#7791882000
0"
#7791887000
0!
#7791888000
1"
#7791893000
0"
#7791898000
1!
#7791899000
1"
#7791904000
0"
#7791910000
1"
#7791916000
0"
#7791921000
0!
#7791922000
1"
#7791927000
0"
#7791933000
1"
#7791938000
0"
#7791943000
1!
#7791944000
1"
#7791949000
0"
#7791950000
0!
#7791955000
1"
#7791967000
1!
0"
#7791975000
0!
#7791981000
1"
#7791986000
0"
#7791992000
1"
#7791997000
0"
#7792003000
1"
#7792008000
0"
#7792014000
1"
#7792020000
0"
#7792025000
1"
#7792031000
0"
#7792036000
1"
#7792042000
0"
#7792047000
1"
#7792053000
0"
#7792059000
1"
#7792064000
0"
#7792069000
1"
#7792081000
1!
0"
#7792089000
0!
#7792095000
1"
#7792101000
0"
#7792106000
1"
#7792112000
0"
#7792117000
1"
#7792123000
0"
#7792128000
1"
#7792134000
0"
#7792140000
1"
#7792145000
0"
#7792151000
1"
#7792156000
0"
#7792162000
1"
#7792167000
0"
#7792173000
1"
#7792178000
0"
#7792184000
1"
#7792195000
0"
#7792196000
1!
#7792203000
0!
#7792218000
1"
#7792224000
0"
#7792229000
1"
#7792235000
0"
#7792240000
1"
#7792246000
0"
#7792252000
1"
#7792257000
0"
#7792263000
1"
#7792268000
0"
#7792274000
1"
#7792279000
0"
#7792285000
1"
#7792290000
0"
#7792296000
1"
#7792301000
0"
#7792307000
1"
#7792318000
0"
#7792319000
1!
#7792326000
0!
#7792333000
1"
#7792338000
0"
#7792344000
1"
#7792349000
0"
#7792355000
1"
#7792360000
0"
#7792366000
1"
#7792371000
0"
#7792377000
1"
#7792382000
0"
#7792388000
1"
#7792393000
0"
#7792399000
1"
#7792404000
0"
#7792410000
1"
#7792416000
0"
#7792421000
1"
#7792433000
1!
0"
#7792440000
0!
#7792447000
1"
#7792452000
0"
#7792458000
1"
#7792463000
0"
#7792469000
1"
#7792474000
0"
#7792480000
1"
#7792485000
0"
#7792491000
1"
#7792497000
0"
#7792502000
1"
#7792508000
0"
#7792513000
1"
#7792519000
0"
#7792524000
1"
#7792530000
0"
#7792535000
1"
#7792547000
1!
0"
#7792553000
0!
#7792559000
1"
#7792563000
1!
#8026504000
0!
#8026525000
0"
#8026533000
1"
#8026538000
0"
#8026544000
1"
#8026549000
0"
#8026555000
1"
#8026560000
0"
#8026566000
1"
#8026571000
0"
#8026577000
1"
#8026583000
0"
#8026588000
1"
#8026594000
0"
#8026599000
1!
#8026600000
1"
#8026605000
0"
#8026626000
0!
#8026627000
1"
#8026633000
0"
#8026638000
1"
#8026650000
1!
0"
#8026656000
0!
#8026662000
1"
#8026668000
0"
#8026673000
1"
#8026679000
0"
#8026684000
1"
#8026690000
0"
#8026696000
1"
#8026701000
0"
#8026707000
1"
#8026728000
0"
#8026734000
1"
#8026755000
0"
#8026760000
1"
#8026766000
0"
#8026771000
1"
#8026777000
0"
#8026782000
1"
#8026794000
1!
0"
#8026800000
0!
#8026807000
1"
#8026812000
0"
#8026818000
1"
#8026823000
0"
#8026829000
1"
#8026834000
0"
#8026855000
1"
#8026861000
0"
#8026866000
1!
#8026867000
1"
#8026872000
0"
#8026878000
1"
#8026883000
0"
#8026889000
0!
1"
#8026895000
0"
#8026900000
1"
#8026906000
0"
#8026911000
1"
#8026923000
1!
0"
#8026948000
0!
#8026970000
1"
#8026975000
0"
#8026981000
1"
#8026986000
0"
#8026992000
1"
#8026997000
0"
#8027003000
1"
#8027008000
0"
#8027014000
1"
#8027019000
0"
#8027025000
1"
#8027030000
0"
#8027036000
1"
#8027058000
0"
#8027079000
1!
#8027080000
1"
